{"status":true,"data":{"page":1,"pageSize":10,"pages":2,"total":13,"list":[{"username":"oopsguy","gender":"男"}]},"msg":"ok","黑龙江":"[\"\\u6dfb\\u52a0\\u7b2c\\u4e00\\u6761\\u9ed1\\u9f99\\u6c5f\\u7684\\u65c5\\u884c\\u65e5\\u5fd7\"]","内蒙古":"[\"10\\u6708\\u5206\\u6253\\u7b97\\u53bb\\u6e9c\\u8fbe\\u53bb\",\"sdf\"]","辽宁":"[\"\\u8fbd\\u5b81\\u8ba1\\u5212\\u8fd8\\u6ca1\\u6709\\u5b9a\\u4e0b\\u6765\"]"}